8 Joining road crash tables – Reproducible Road Safety Research with R
…
[1] "2023520300610"

ac %>% filter(accident_index == id_with_most_crashes) %>% 
  select(accident_index, accident_severity, number_of_vehicles, number_of_casualties)

# A tibble: 1 × 4
  accident_index accident_severity number_of_vehicles number_of_casualties
  <chr>          <chr>                          <dbl>                <dbl>
1 2023520300610  Serious                            3                   70

ac_cas_joined %>% filter(accident_index == id_with_most_crashes) %>% 
  select(accident_index, accident_severity, number_of_vehicles, number_of_casualties, casualty_reference)

# A tibble: 70 × 5
   accident_index accident_severity number_of_vehicles number_of_casualties
   <chr>          <chr>                          <dbl>                <dbl>
 1 2023520300610  Serious                            3                   70
 2 2023520300610  Serious                            3                   70
 3 2023520300610  Serious                            3                   70
 4 2023520300610  Serious                            3                   70
 5 2023520300610  Serious                            3                   70
 6 2023520300610  Serious                            3                   70
 7 2023520300610  Serious                            3                   70
 8 2023520300610  Serious                            3                   70
 9 2023520300610  Serious                            3                   70
10 2023520300610  Serious                            3                   70
# ℹ 60 more rows
# ℹ 1 more variable: casualty_reference <chr>
…
