8 Joining road crash tables | Reproducible road safety research with R: A practical introduction
…
## [1] "2019500885809"

ac %>% filter(accident_index == id_with_most_crashes) %>% 
  select(accident_index, accident_severity, number_of_vehicles, number_of_casualties)

## # A tibble: 1 x 4
##   accident_index accident_severity number_of_vehicles number_of_casualties
##   <chr>          <chr>                          <int>                <int>
## 1 2019500885809  Serious                            1                   52

ac_cas_joined %>% filter(accident_index == id_with_most_crashes) %>% 
  select(accident_index, accident_severity, number_of_vehicles, number_of_casualties, casualty_reference)

## # A tibble: 52 x 5
##    accident_index accident_severi… number_of_vehic… number_of_casua…
##    <chr>          <chr>                       <int>            <int>
##  1 2019500885809  Serious                         1               52
##  2 2019500885809  Serious                         1               52
##  3 2019500885809  Serious                         1               52
##  4 2019500885809  Serious                         1               52
##  5 2019500885809  Serious                         1               52
##  6 2019500885809  Serious                         1               52
##  7 2019500885809  Serious                         1               52
##  8 2019500885809  Serious                         1               52
##  9 2019500885809  Serious                         1               52
## 10 2019500885809  Serious                         1               52
## # … with 42 more rows, and 1 more variable: casualty_reference <int>
…
